…
mation about the survey design. It adds information about the
sampling identifiers (ids), the strata (strata), and the replicate
weights (weights). With those in place we can take advantage
of a large number of specialized functions in the survey library
that allow us to calculate properly weighted survey means or esti-
mate models with the correct sampling specification. For exam-
ple, we can calculate the distribution of education by race for
a series of years from 1976 to 2016. We use survey_mean() to
do this:
out_grp ←gss_wt %>%
ﬁlter(year %in% seq(1976, 2016, by = 4)) %>%
group_by(year, race, degree) %>%
summarize(prop = survey_mean(na.rm = TRUE))
out_grp
## # A tibble: 150 x 5
##
year race
degree
prop prop_se
##
<dbl> <fct> <fct>
<dbl>
<dbl>
##
1 1976. White Lt High School 0.328
0.0160
##
2 1976. White High School
0.518
0.0162
##
3 1976. White Junior College 0.0129 0.00298
##
4 1976. White Bachelor
0.101
0.00960
##
5 1976. White Graduate
0.0393 0.00644
##
6 1976. Black Lt High School 0.562
0.0611
##
7 1976. Black High School
0.337
0.0476
##
8 1976. Black Junior College 0.0426 0.0193
##
9 1976. Black Bachelor
0.0581 0.0239
## 10 1976. Black Graduate
0.
0.
## # ... with 140 more rows
…
for the innermost variable, grouped by the next variable “up” or
“out,” in this case, degree by race, such that the proportions for
degree will sum to one for each group in race, and this will be
done separately for each value of year. If we want the marginal
frequencies, such that the values for all combinations of race and
degree sum to one within each year, we first have to interact
the variables we are cross-classifying. Then we group by the new
interacted variable and do the calculation as before:
out_mrg ←gss_wt %>%
ﬁlter(year %in% seq(1976, 2016, by = 4)) %>%
mutate(racedeg = interaction(race, degree)) %>%
group_by(year, racedeg) %>%
summarize(prop = survey_mean(na.rm = TRUE))
out_mrg
## # A tibble: 150 x 4
##
year racedeg
prop prop_se
##
<dbl> <fct>
<dbl>
<dbl>
##
1 1976. White.Lt High School 0.298
0.0146
##
2 1976. Black.Lt High School 0.0471
0.00840
##
3 1976. Other.Lt High School 0.00195 0.00138
##
4 1976. White.High School
0.471
0.0160
##
5 1976. Black.High School
0.0283
0.00594
##
6 1976. Other.High School
0.00325 0.00166
##
7 1976. White.Junior College 0.0117
0.00268
##
8 1976. Black.Junior College 0.00357 0.00162
##
9 1976. Other.Junior College 0.
0.
## 10 1976. White.Bachelor
0.0919
0.00888
## # ... with 140 more rows
…
The period acts as a special character, a kind of
wildcard, meaning “any character at all.” To make
the regular expression engine treat it literally, we
add one backslash before it. The backslash is an
“escape” character. It means “The next character is
going to be treated differently from usual.” However,
because the backslash is a special character as well,
we need to add a second backslash to make sure
the parser sees it properly.
out_mrg ←gss_wt %>% ﬁlter(year %in% seq(1976, 2016, by = 4)) %>%
mutate(racedeg = interaction(race, degree)) %>% group_by(year,
racedeg) %>% summarize(prop = survey_mean(na.rm = TRUE)) %>%
separate(racedeg, sep = "\\.", into = c("race", "degree"))
out_mrg
## # A tibble: 150 x 5
##
year race
degree
prop prop_se
##
<dbl> <chr> <chr>
<dbl>
<dbl>
##
1 1976. White Lt High School 0.298
0.0146
##
2 1976. Black Lt High School 0.0471
0.00840
##
3 1976. Other Lt High School 0.00195 0.00138
##
4 1976. White High School
0.471
0.0160
##
5 1976. Black High School
0.0283
0.00594
##
6 1976. Other High School
0.00325 0.00166
##
7 1976. White Junior College 0.0117
0.00268
##
8 1976. Black Junior College 0.00357 0.00162
##
9 1976. Other Junior College 0.
0.
## 10 1976. White Bachelor
0.0919
0.00888
## # ... with 140 more rows
…
Appendix
•
249
should be treated as a date measure and not an integer. We’ll use
a home-cooked function, int_to_year(), that takes integers and
converts them to dates.
bad_year$year ←int_to_year(bad_year$year)
bad_year %>% select(1:3)
## # A tibble: 238 x 3
##
country
year
donors
##
<chr>
<date>
<dbl>
##
1 Australia NA
NA
##
2 Australia 1991-01-01
12.1
##
3 Australia 1992-01-01
12.4
##
4 Australia 1993-01-01
12.5
##
5 Australia 1994-01-01
10.2
##
6 Australia 1995-01-01
10.2
##
7 Australia 1996-01-01
10.6
##
8 Australia 1997-01-01
10.3
##
9 Australia 1998-01-01
10.5
## 10 Australia 1999-01-01
8.67
## # ... with 228 more rows
…
